INFO [05-10|22:51:25.632] Maximum peer count                       ETH=25 LES=0 total=25
ERROR[05-10|22:51:25.633] Failed to enumerate USB devices          hub=ledger vendor=11415 failcount=1 err="failed to initialize libusb: libusb: unknown error [code -99]"
ERROR[05-10|22:51:25.633] Failed to enumerate USB devices          hub=trezor vendor=21324 failcount=1 err="failed to initialize libusb: libusb: unknown error [code -99]"
ERROR[05-10|22:51:25.633] Failed to enumerate USB devices          hub=ledger vendor=11415 failcount=2 err="failed to initialize libusb: libusb: unknown error [code -99]"
ERROR[05-10|22:51:25.633] Failed to enumerate USB devices          hub=trezor vendor=21324 failcount=2 err="failed to initialize libusb: libusb: unknown error [code -99]"
INFO [05-10|22:51:25.637] Starting peer-to-peer node               instance=energi3/v3.1.3-stable/linux-amd64/go1.17.9
INFO [05-10|22:51:25.637] Allocated cache and file handles         database=/home/energi/.energicore3/energi3/chaindata cache=512 handles=524288
INFO [05-10|22:51:25.642] Writing custom genesis block
INFO [05-10|22:51:25.647] Persisted trie from memory database      nodes=152 size=114.32kB time=623.302µs gcnodes=0 gcsize=0.00B gctime=0s livenodes=1 livesize=0.00B
INFO [05-10|22:51:25.647] Initialised chain configuration          config="{ChainID: 39797 Homestead: 0 EIP150: 0 EIP155: 0 EIP158: 0 Byzantium: 0 Constantinople: 0  ConstantinopleFix: 0 Engine: energi}"
INFO [05-10|22:51:25.648] Initialising Energi protocol             versions=[70] network=39797
INFO [05-10|22:51:25.657] Loaded most recent local header          number=0 hash=d8e2a3…dc228a td=65535 age=2y2mo1w
INFO [05-10|22:51:25.657] Loaded most recent local full block      number=0 hash=d8e2a3…dc228a td=65535 age=2y2mo1w
INFO [05-10|22:51:25.657] Loaded most recent local fast block      number=0 hash=d8e2a3…dc228a td=65535 age=2y2mo1w
INFO [05-10|22:51:25.657] Added new checkpoint                     checkpoint="{Number:38283 Hash:0xbcdaf97b5fa9041b34afcee7ffa85ce88e8e1a9eada2855b5e3ee55b8153f70d}" local=true
INFO [05-10|22:51:25.657] Added new checkpoint                     checkpoint="{Number:38284 Hash:0x2a724c7ae36f26b61f5702b0b2099c37061b105b619f250991b573e8d32d63a0}" local=true
INFO [05-10|22:51:25.657] Added new checkpoint                     checkpoint="{Number:324911 Hash:0x6c4d2ec49ebe49135793733b8fb43adf5e0d883d96a8d65dbe98e1debcc77c3a}" local=true
INFO [05-10|22:51:25.657] Added new checkpoint                     checkpoint="{Number:324913 Hash:0x7ea1dd2b9b737ea22232dc55378ea9c11aa8e5d1712ad650f1cf2fa53fe820c8}" local=true
INFO [05-10|22:51:25.657] Added new checkpoint                     checkpoint="{Number:325054 Hash:0x9d33948d3411b8276696e2a4422b412830a4083082d523463bd79ab572803ddd}" local=true
INFO [05-10|22:51:25.657] Added new checkpoint                     checkpoint="{Number:563400 Hash:0xfc5725db1869a1ca7a19769e376c826792719fe8d361f5fc9d8407725faae3f5}" local=true
INFO [05-10|22:51:25.657] Added new checkpoint                     checkpoint="{Number:765780 Hash:0x265f3b69f31a6f077db1acd84680dd8177eedbd7167b510997cfaa92fd31358c}" local=true
INFO [05-10|22:51:25.657] Regenerated local transaction journal    transactions=0 accounts=0
INFO [05-10|22:51:25.663] New local node record                    seq=1 id=6199f1145cb0d8cb ip=127.0.0.1 udp=39797 tcp=39797
INFO [05-10|22:51:25.663] Started P2P networking                   self=enode://557b723c8fc66c73a0f13b10469ae653c1f1e9836b60aea5e7f684008065e4fea8c73b56edb78988d32a50d8d8784265b4881088ced4076ecdd0cc74eec6b29b@127.0.0.1:39797
INFO [05-10|22:51:25.666] IPC endpoint opened                      url=/home/energi/.energicore3/energi3.ipc
INFO [05-10|22:51:25.666] Transaction pool price threshold updated price=1000000000
INFO [05-10|22:51:25.666] Transaction pool price threshold updated price=1000000000
INFO [05-10|22:51:25.666] Network syncing, will start miner afterwards
ERROR[05-10|22:51:26.634] Failed to enumerate USB devices          hub=trezor vendor=21324 failcount=3 err="failed to initialize libusb: libusb: unknown error [code -99]"
ERROR[05-10|22:51:26.634] Failed to enumerate USB devices          hub=ledger vendor=11415 failcount=3 err="failed to initialize libusb: libusb: unknown error [code -99]"
INFO [05-10|22:51:30.170] Added new checkpoint                     checkpoint="{Number:843652 Hash:0xa62918dfab1ae0a827b31025ad0811408f13a8908f1312ff1eb980596ac5d3ee}" local=false
INFO [05-10|22:51:35.663] Block synchronisation started
WARN [05-10|22:51:45.198] Setting Migration contract balance       amount=26961880001785450000000000
INFO [05-10|22:51:46.864] Imported new chain segment               blocks=1 txs=2 mgas=5248.610 elapsed=5.130s mgasps=1022.990 number=1 hash=4e53a9…8ba946 age=2y2mo1w cache=55.88mB
INFO [05-10|22:51:48.319] Imported new chain segment               blocks=86 txs=1919 mgas=103.367  elapsed=1.453s mgasps=71.127   number=87 hash=0a71ce…c50586 age=2y2mo1w cache=61.35mB
INFO [05-10|22:51:51.320] Imported new chain segment               blocks=128 txs=3288 mgas=170.322  elapsed=2.999s mgasps=56.785   number=215 hash=1caf44…7beb66 age=2y2mo1w cache=68.04mB
INFO [05-10|22:51:56.637] Persisted trie from memory database      nodes=336685 size=35.40mB  time=1.804831431s gcnodes=53482 gcsize=15.66mB gctime=170.256871ms livenodes=33618 livesize=9.34mB
INFO [05-10|22:51:59.333] Imported new chain segment               blocks=373 txs=6916 mgas=459.734  elapsed=8.007s mgasps=57.415   number=588 hash=bc4523…7fbcef age=2y2mo1w cache=13.31mB
INFO [05-10|22:52:04.061] Imported new chain segment               blocks=267 txs=4395 mgas=246.245  elapsed=4.728s mgasps=52.078   number=855 hash=885d77…2f0253 age=2y2mo1w cache=11.84mB
INFO [05-10|22:52:08.688] Persisted trie from memory database      nodes=22447  size=4.14mB   time=147.731111ms gcnodes=96420 gcsize=29.07mB gctime=300.564515ms livenodes=14932 livesize=4.29mB
INFO [05-10|22:52:12.089] Imported new chain segment               blocks=507 txs=5997 mgas=331.273  elapsed=8.007s mgasps=41.368   number=1362 hash=446b08…0656ad age=2y2mo1w cache=8.49mB
INFO [05-10|22:52:14.617] New local node record                    seq=2 id=6199f1145cb0d8cb ip=62.216.59.200 udp=62071 tcp=39797
INFO [05-10|22:52:20.083] Imported new chain segment               blocks=447 txs=7439 mgas=477.075  elapsed=8.014s mgasps=59.526   number=1809 hash=45f10e…693671 age=2y2mo1w cache=12.81mB
INFO [05-10|22:52:20.586] Persisted trie from memory database      nodes=13169  size=2.54mB   time=99.818736ms  gcnodes=78073 gcsize=23.75mB gctime=221.483086ms livenodes=29587 livesize=8.19mB
INFO [05-10|22:52:28.097] Imported new chain segment               blocks=357 txs=6628 mgas=407.451  elapsed=8.014s mgasps=50.840   number=2166 hash=7e2391…0c3ee7 age=2y2mo1w cache=13.70mB
INFO [05-10|22:52:32.165] Persisted trie from memory database      nodes=15378  size=2.62mB   time=102.468831ms gcnodes=75438 gcsize=22.58mB gctime=217.00369ms  livenodes=23888 livesize=6.66mB
INFO [05-10|22:52:36.104] Imported new chain segment               blocks=333 txs=6180 mgas=342.335  elapsed=8.007s mgasps=42.753   number=2499 hash=fdaad5…77fcbe age=2y2mo1w cache=9.54mB
INFO [05-10|22:52:43.473] Persisted trie from memory database      nodes=8624   size=1.82mB   time=65.86302ms   gcnodes=57692 gcsize=16.58mB gctime=164.895636ms livenodes=22645 livesize=6.33mB
INFO [05-10|22:52:44.147] Imported new chain segment               blocks=325 txs=5702 mgas=321.853  elapsed=8.042s mgasps=40.017   number=2824 hash=3e555d…33df68 age=2y2mo1w cache=8.81mB
INFO [05-10|22:52:46.254] Imported new chain segment               blocks=79  txs=1784 mgas=96.470   elapsed=2.127s mgasps=45.346   number=2903 hash=df4282…065d57 age=2y2mo1w cache=10.69mB
INFO [05-10|22:52:54.289] Imported new chain segment               blocks=304 txs=5474 mgas=319.606  elapsed=8.014s mgasps=39.880   number=3207 hash=191a84…320d3e age=2y2mo1w cache=11.94mB
INFO [05-10|22:52:54.836] Persisted trie from memory database      nodes=11663  size=2.37mB   time=89.932421ms  gcnodes=54370 gcsize=16.11mB gctime=158.741162ms livenodes=26456 livesize=7.38mB
INFO [05-10|22:53:02.297] Imported new chain segment               blocks=293 txs=5243 mgas=304.724  elapsed=8.007s mgasps=38.053   number=3500 hash=98d05a…dd3238 age=2y2mo1w cache=10.93mB
INFO [05-10|22:53:06.197] Persisted trie from memory database      nodes=10029  size=1.90mB   time=94.987978ms  gcnodes=54547 gcsize=16.17mB gctime=161.427291ms livenodes=27158 livesize=7.73mB
INFO [05-10|22:53:10.333] Imported new chain segment               blocks=289 txs=5301 mgas=306.204  elapsed=8.035s mgasps=38.105   number=3789 hash=d75849…eb4bb3 age=2y2mo1w cache=10.07mB
INFO [05-10|22:53:17.386] Persisted trie from memory database      nodes=9629   size=1.87mB   time=48.483613ms  gcnodes=52898 gcsize=15.94mB gctime=161.464293ms livenodes=22735 livesize=6.53mB
INFO [05-10|22:53:18.319] Imported new chain segment               blocks=281 txs=4998 mgas=271.326  elapsed=8.006s mgasps=33.890   number=4070 hash=24fd03…ae4506 age=2y2mo1w cache=8.70mB
INFO [05-10|22:53:26.333] Imported new chain segment               blocks=272 txs=5234 mgas=287.287  elapsed=8.014s mgasps=35.844   number=4342 hash=02db7e…785c37 age=2y2mo1w cache=11.10mB
INFO [05-10|22:53:28.526] Persisted trie from memory database      nodes=8415   size=1.82mB   time=48.089122ms  gcnodes=44758 gcsize=13.48mB gctime=136.917563ms livenodes=30529 livesize=8.85mB
INFO [05-10|22:53:34.351] Imported new chain segment               blocks=247 txs=4931 mgas=311.735  elapsed=8.017s mgasps=38.881   number=4589 hash=f466e8…769784 age=2y2mo1w cache=12.86mB
INFO [05-10|22:53:39.785] Persisted trie from memory database      nodes=14550  size=2.62mB   time=72.243532ms  gcnodes=53295 gcsize=16.68mB gctime=166.446223ms livenodes=31130 livesize=8.81mB
INFO [05-10|22:53:42.376] Imported new chain segment               blocks=239 txs=4463 mgas=294.136  elapsed=8.025s mgasps=36.652   number=4828 hash=d67a0f…c9a839 age=2y2mo1w cache=12.62mB
INFO [05-10|22:53:46.647] Imported new chain segment               blocks=123 txs=2201 mgas=134.106  elapsed=4.290s mgasps=31.253   number=4951 hash=28dea9…9b3988 age=2y2mo1w cache=12.08mB
INFO [05-10|22:53:50.861] Persisted trie from memory database      nodes=12754  size=2.08mB   time=71.764974ms  gcnodes=46625 gcsize=14.85mB gctime=156.148421ms livenodes=21955 livesize=6.26mB
INFO [05-10|22:53:54.684] Imported new chain segment               blocks=212 txs=3716 mgas=203.285  elapsed=8.015s mgasps=25.360   number=5163 hash=279423…56de21 age=2y2mo1w cache=9.48mB
INFO [05-10|22:54:01.769] Persisted trie from memory database      nodes=7052   size=1.37mB   time=38.3326ms    gcnodes=35678 gcsize=10.89mB gctime=110.394863ms livenodes=22389 livesize=6.42mB
INFO [05-10|22:54:02.695] Imported new chain segment               blocks=234 txs=4065 mgas=225.116  elapsed=8.010s mgasps=28.102   number=5397 hash=ea32a0…b07e8d age=2y2mo1w cache=8.53mB
INFO [05-10|22:54:10.775] Imported new chain segment               blocks=240 txs=3975 mgas=220.859  elapsed=8.079s mgasps=27.335   number=5637 hash=b3be8b…9d6bcf age=2y2mo1w cache=8.98mB
INFO [05-10|22:54:12.710] Persisted trie from memory database      nodes=6915   size=1.35mB   time=41.024707ms  gcnodes=37011 gcsize=11.14mB gctime=106.976868ms livenodes=21299 livesize=6.09mB
INFO [05-10|22:54:18.784] Imported new chain segment               blocks=238 txs=4111 mgas=230.270  elapsed=8.029s mgasps=28.679   number=5875 hash=b3716b…76da35 age=2y2mo1w cache=9.40mB
INFO [05-10|22:54:23.600] Persisted trie from memory database      nodes=7825   size=1.54mB   time=52.325ms     gcnodes=36822 gcsize=11.16mB gctime=106.407542ms livenodes=21305 livesize=6.00mB
INFO [05-10|22:54:26.792] Imported new chain segment               blocks=239 txs=4091 mgas=223.595  elapsed=8.008s mgasps=27.921   number=6114 hash=610e47…559074 age=2y2mo1w cache=9.30mB
INFO [05-10|22:54:34.517] Persisted trie from memory database      nodes=8292   size=1.68mB   time=47.887019ms  gcnodes=36642 gcsize=11.19mB gctime=104.919117ms livenodes=22222 livesize=6.37mB
INFO [05-10|22:54:34.846] Imported new chain segment               blocks=236 txs=4315 mgas=238.673  elapsed=8.054s mgasps=29.633   number=6350 hash=4973d1…04fccd age=2y2mo6d cache=8.30mB
INFO [05-10|22:54:42.856] Imported new chain segment               blocks=238 txs=3991 mgas=217.244  elapsed=8.009s mgasps=27.122   number=6588 hash=7b15c0…2cf572 age=2y2mo6d cache=9.61mB
INFO [05-10|22:54:45.479] Persisted trie from memory database      nodes=7522   size=1.48mB   time=45.754185ms  gcnodes=37651 gcsize=11.44mB gctime=109.557201ms livenodes=22799 livesize=6.62mB
INFO [05-10|22:54:50.885] Imported new chain segment               blocks=229 txs=4146 mgas=227.800  elapsed=8.049s mgasps=28.299   number=6817 hash=6c3f27…9681dc age=2y2mo6d cache=10.11mB
INFO [05-10|22:54:56.450] Persisted trie from memory database      nodes=8554   size=1.75mB   time=51.102756ms  gcnodes=35784 gcsize=11.18mB gctime=108.980138ms livenodes=23204 livesize=6.72mB
INFO [05-10|22:54:57.298] Imported new chain segment               blocks=182 txs=3196 mgas=178.121  elapsed=6.412s mgasps=27.777   number=6999 hash=077730…8b1bfb age=2y2mo6d cache=8.78mB
INFO [05-10|22:55:05.335] Imported new chain segment               blocks=213 txs=3613 mgas=201.801  elapsed=8.015s mgasps=25.176   number=7212 hash=e37962…e50229 age=2y2mo6d cache=9.49mB
INFO [05-10|22:55:07.417] Persisted trie from memory database      nodes=7338   size=1.42mB   time=47.748407ms  gcnodes=35387 gcsize=10.87mB gctime=108.368143ms livenodes=23114 livesize=6.67mB
INFO [05-10|22:55:13.406] Imported new chain segment               blocks=231 txs=4183 mgas=229.840  elapsed=8.071s mgasps=28.476   number=7443 hash=6041bf…b95206 age=2y2mo6d cache=10.09mB
INFO [05-10|22:55:18.320] Persisted trie from memory database      nodes=7666   size=1.52mB   time=50.764179ms  gcnodes=36949 gcsize=11.41mB gctime=113.735879ms livenodes=24237 livesize=7.09mB
INFO [05-10|22:55:21.367] Imported new chain segment               blocks=226 txs=4242 mgas=229.824  elapsed=8.012s mgasps=28.685   number=7669 hash=522281…9c2191 age=2y2mo5d cache=10.25mB
INFO [05-10|22:55:29.270] Persisted trie from memory database      nodes=10471  size=2.20mB   time=65.025985ms  gcnodes=38207 gcsize=12.01mB gctime=112.674407ms livenodes=22548 livesize=6.46mB
INFO [05-10|22:55:29.392] Imported new chain segment               blocks=236 txs=4222 mgas=233.236  elapsed=8.024s mgasps=29.064   number=7905 hash=bc6e1b…d820ba age=2y2mo5d cache=7.98mB
INFO [05-10|22:55:37.417] Imported new chain segment               blocks=238 txs=4134 mgas=225.089  elapsed=8.024s mgasps=28.051   number=8143 hash=a7790a…6f8be8 age=2y2mo5d cache=9.52mB
INFO [05-10|22:55:40.229] Persisted trie from memory database      nodes=7455   size=1.47mB   time=44.515648ms  gcnodes=38341 gcsize=11.73mB gctime=111.393506ms livenodes=21892 livesize=6.38mB
INFO [05-10|22:55:45.406] Imported new chain segment               blocks=236 txs=4145 mgas=228.939  elapsed=8.015s mgasps=28.561   number=8379 hash=c433a0…da46e9 age=2y2mo5d cache=9.22mB
INFO [05-10|22:55:51.271] Persisted trie from memory database      nodes=7305   size=1.43mB   time=45.603435ms  gcnodes=36037 gcsize=11.12mB gctime=105.335591ms livenodes=26256 livesize=7.67mB
INFO [05-10|22:55:53.429] Imported new chain segment               blocks=224 txs=4528 mgas=242.355  elapsed=8.022s mgasps=30.209   number=8603 hash=d1ee5a…e38e63 age=2y2mo5d cache=11.16mB
INFO [05-10|22:56:01.432] Imported new chain segment               blocks=230 txs=4228 mgas=234.727  elapsed=8.003s mgasps=29.328   number=8833 hash=5c196b…411692 age=2y2mo5d cache=11.03mB
INFO [05-10|22:56:02.187] Persisted trie from memory database      nodes=11168  size=2.35mB   time=67.804607ms  gcnodes=39115 gcsize=12.38mB gctime=118.601073ms livenodes=22343 livesize=6.45mB
INFO [05-10|22:56:09.021] Imported new chain segment               blocks=214 txs=3956 mgas=219.766  elapsed=7.588s mgasps=28.959   number=9047 hash=34c4e9…b6994a age=2y2mo4d cache=9.90mB
INFO [05-10|22:56:13.130] Persisted trie from memory database      nodes=7431   size=1.44mB   time=46.529689ms  gcnodes=36130 gcsize=11.17mB gctime=105.977552ms livenodes=22718 livesize=6.62mB
INFO [05-10|22:56:17.039] Imported new chain segment               blocks=230 txs=3688 mgas=206.008  elapsed=8.019s mgasps=25.689   number=9277 hash=0bdda6…c3c97f age=2y2mo4d cache=8.84mB
INFO [05-10|22:56:24.012] Persisted trie from memory database      nodes=7384   size=1.44mB   time=45.432187ms  gcnodes=37284 gcsize=11.60mB gctime=110.226937ms livenodes=21807 livesize=6.28mB
INFO [05-10|22:56:25.065] Imported new chain segment               blocks=233 txs=4037 mgas=224.457  elapsed=8.026s mgasps=27.966   number=9510 hash=31dfde…b80a85 age=2y2mo4d cache=8.40mB
INFO [05-10|22:56:33.081] Imported new chain segment               blocks=237 txs=3821 mgas=212.679  elapsed=8.015s mgasps=26.533   number=9747 hash=3140e9…309fdb age=2y2mo4d cache=9.51mB
INFO [05-10|22:56:34.975] Persisted trie from memory database      nodes=6806   size=1.32mB   time=46.286637ms  gcnodes=36685 gcsize=11.27mB gctime=106.632541ms livenodes=22252 livesize=6.51mB
INFO [05-10|22:56:41.116] Imported new chain segment               blocks=233 txs=3975 mgas=221.871  elapsed=8.035s mgasps=27.611   number=9980 hash=892ec1…3e3f30 age=2y2mo4d cache=9.65mB
INFO [05-10|22:56:45.863] Persisted trie from memory database      nodes=7623   size=1.49mB   time=52.102111ms  gcnodes=35661 gcsize=11.17mB gctime=106.940311ms livenodes=24944 livesize=7.40mB
INFO [05-10|22:56:49.104] Imported new chain segment               blocks=221 txs=4420 mgas=238.126  elapsed=8.008s mgasps=29.735   number=10201 hash=1718a8…4e607d age=2y2mo4d cache=10.50mB
INFO [05-10|22:56:56.867] Persisted trie from memory database      nodes=10473  size=2.21mB   time=66.939787ms  gcnodes=37704 gcsize=12.12mB gctime=118.262997ms livenodes=23020 livesize=6.70mB
INFO [05-10|22:56:57.113] Imported new chain segment               blocks=224 txs=3873 mgas=214.081  elapsed=8.009s mgasps=26.729   number=10425 hash=f4dc35…3fd6d7 age=2y2mo4d cache=8.23mB
INFO [05-10|22:57:05.129] Imported new chain segment               blocks=227 txs=3519 mgas=196.937  elapsed=8.015s mgasps=24.569   number=10652 hash=0edfd1…84de44 age=2y2mo3d cache=8.95mB
INFO [05-10|22:57:06.670] Got interrupt, shutting down...
INFO [05-10|22:57:06.670] IPC endpoint closed                      url=/home/energi/.energicore3/energi3.ipc
INFO [05-10|22:57:06.703] Writing cached state to disk             block=10696 hash=516291…8956a7 root=2cf201…bf33b4
INFO [05-10|22:57:06.748] Persisted trie from memory database      nodes=6980   size=1.28mB   time=45.040973ms  gcnodes=31528 gcsize=9.91mB  gctime=99.803066ms  livenodes=20448 livesize=6.10mB
INFO [05-10|22:57:06.748] Writing cached state to disk             block=10695 hash=74880a…271736 root=5267a1…0a6d28
INFO [05-10|22:57:06.751] Persisted trie from memory database      nodes=282    size=77.82kB  time=2.405128ms   gcnodes=0     gcsize=0.00B   gctime=0s           livenodes=20166 livesize=6.02mB
INFO [05-10|22:57:06.751] Writing cached state to disk             block=10537 hash=c7620f…a2eb25 root=2869fa…8b160f
INFO [05-10|22:57:06.781] Persisted trie from memory database      nodes=5017   size=918.75kB time=30.050968ms  gcnodes=0     gcsize=0.00B   gctime=0s           livenodes=15149 livesize=5.10mB
INFO [05-10|22:57:06.807] Blockchain manager stopped
INFO [05-10|22:57:06.807] Stopping Energi protocol
WARN [05-10|22:57:06.807] Synchronisation failed, retrying         err="block header download canceled (requested)"
INFO [05-10|22:57:06.808] Energi protocol stopped
INFO [05-10|22:57:06.808] Transaction pool stopped
INFO [05-10|22:57:06.811] Database closed                          database=/home/energi/.energicore3/energi3/chaindata
INFO [05-10|22:57:06.811] Shutting down Energi Hardforks
